{
  "ROOT_URL": "",
  "MONGO_URL": "",
  "MAIL_URL": "",
  "reaction": {
    "REACTION_USER": "hadenhiles",
    "REACTION_AUTH": "love2playhockey",
    "REACTION_EMAIL": "haden@bugslifesolutions.com"
  },
  "isDebug": "info"
}